…
# Presence threshold - i.e. In what minimum proportion of samples does the gain or loss need to be present?
> proportion_threshold <- 0.2

# Run command
> output <- MakeSummaryTable(gl_sample_cn_data, 
                           low_threshold, high_threshold, 
                           prob_loss, prob_gain, 
                           proportion_threshold,
                           find_peaks = TRUE)
> output$summary_table
# A tibble: 1,565 × 14
   chromosome    start      end mean_copy_number gain_probability loss_probability gain_count loss_count gain_samples                                    loss_…¹ bin_c…² sum_o…³ coord…⁴ featu…⁵
   <chr>         <int>    <int>            <dbl>            <dbl>            <dbl>      <dbl>      <dbl> <chr>                                           <chr>     <int>   <dbl> <chr>   <chr>  
 1 1            840001  1020000            0.150            0.301           0.0076          3          0 CC-CHM-1347,CC-CHM-1361,CC-HAM-0383             ""            6  180000 chr1:8… RP11-5…
 2 1           1020001  1950000            0.101            0.213           0.0076          3          0 CC-CHM-1347,CC-CHM-1361,CC-HAM-0383             ""           24  720000 chr1:1… C1orf1…
 3 1           1950001  2160000            0.146            0.213           0.0076          3          0 CC-CHM-1347,CC-CHM-1361,CC-HAM-0383             ""            7  210000 chr1:1… GABRD,…
 4 1           2160001  2220000            0.116            0.211           0.054           3          1 CC-CHM-1347,CC-CHM-1361,CC-HAM-0383             "CC-HA…       2   60000 chr1:2… SKI    
 5 1           8880001  9060000            0.157            0.247           0.006           5          0 CC-CHM-1347,CC-CHM-1361,CC-HAM-0369,CC-HAM-037… ""            6  180000 chr1:8… RP11-1…
 6 1           9600001 10230000            0.139            0.257           0.0046          6          0 CC-CHM-1347,CC-CHM-1353,CC-CHM-1361,CC-HAM-036… ""           21  630000 chr1:9… SLC25A…
 7 1          10620001 10770000            0.119            0.225           0.0077          5          1 CC-CHM-1347,CC-CHM-1361,CC-HAM-0369,CC-HAM-037… "CC-CH…       5  150000 chr1:1… PEX14,…
 8 1          10950001 11070000            0.177            0.305           0.0126          4          2 CC-CHM-1347,CC-HAM-0369,CC-HAM-0374,CC-HAM-0383 "CC-CH…       4  120000 chr1:1… HSPE1P…
 9 1          15420001 15630000            0.148            0.294           0.107           3          2 CC-CHM-1347,CC-HAM-0383,CC-HAM-0385             "CC-CH…       7  210000 chr1:1… KAZN,T…
10 1          15960001 16080000            0.155            0.304           0.107           3          2 CC-CHM-1347,CC-HAM-0383,CC-HAM-0385             "CC-CH…       4  120000 chr1:1… DDI2,D…
# … with 1,555 more rows, and abbreviated variable names ¹​loss_samples, ²​bin_count, ³​sum_of_bin_lengths, ⁴​coordinates, ⁵​features_in_region
# ℹ Use `print(n = ...)` to see more rows
```
